/* XPM */
static char * close_inactive_xpm[] = {
"24 24 18 1",
" 	c None",
".	c #2F2F2F",
"+	c #313131",
"@	c #373737",
"#	c #3E3E3E",
"$	c #727272",
"%	c #828282",
"&	c #606060",
"*	c #888888",
"=	c #909090",
"-	c #949494",
";	c #8F8F8F",
">	c #515151",
",	c #585858",
"'	c #555555",
")	c #5F5F5F",
"!	c #646464",
"~	c #383838",
"........................",
"........................",
"........................",
"........................",
"........+@...@++........",
"........#$$%%$$#........",
".......&%*=--=*%&.......",
"......&%=------;%&......",
".....>%=-=----=-=%#.....",
".....$*--+,=-,+--*$.....",
".....$=--&+''.)=-=$.....",
".....%=---)..)----*.....",
"....+%---->+.>=---%.....",
"....@$=--'+!&+'--=%.....",
".....$*--~!--!~-=*$.....",
".....#%=--------;%#.....",
"......)%;------=%&......",
".......)%*;=-=*%).......",
"........#$$%%$$#........",
"........++@.+.@+........",
"........................",
"........................",
"........................",
"........................"};
