/* XPM */
static char * close_pressed_xpm[] = {
"24 24 36 1",
" 	c None",
".	c #2F2F2F",
"+	c #3B3E39",
"@	c #6A7362",
"#	c #7B8075",
"$	c #7F807D",
"%	c #5A6152",
"&	c #7B8A6C",
"*	c #77925C",
"=	c #759654",
"-	c #76925A",
";	c #7B896C",
">	c #585F50",
",	c #7F827B",
"'	c #77925A",
")	c #749651",
"!	c #303030",
"~	c #46523A",
"{	c #7F817E",
"]	c #739551",
"^	c #70904F",
"/	c #4B593D",
"(	c #303130",
"_	c #6A7261",
":	c #50603F",
"<	c #49553B",
"[	c #373737",
"}	c #4F5E3E",
"|	c #536541",
"1	c #4A573C",
"2	c #7B8176",
"3	c #353832",
"4	c #3A3D37",
"5	c #77915C",
"6	c #759554",
"7	c #3C3D39",
"........................",
"........................",
"........................",
"........................",
"........................",
"........+@#$$#@+........",
".......%$&*==-;$>.......",
"......%,'))))))-$>......",
".!!!.~{=)]))))^)*,~.....",
".!!!.@&=]./^)/()=&_.....",
"..!!._*=]:(<<(:)==@.....",
"..!![$==)):..}))=*{.....",
".....@*=))<(.~]])={.....",
"....(#*=)<(:|.1))-2(....",
".....@&))3|))|3)^;@.....",
".....+$-))))))))-,4.....",
"......>@*)))))=*$%......",
"......[%{#5665#$>.......",
"....!![!7_$_@@@7........",
".....!!!!![.[[[[........",
"........................",
"........................",
"........................",
"........................"};
