/* XPM */
static char * stick_prelight_xpm[] = {
"24 24 16 1",
" 	c None",
".	c #2F2F2F",
"+	c #3F3F3F",
"@	c #838383",
"#	c #ACACAC",
"$	c #BFBFBF",
"%	c #ABABAB",
"&	c #666666",
"*	c #BBBBBB",
"=	c #909090",
"-	c #515151",
";	c #B6B6B6",
">	c #636363",
",	c #4C4C4C",
"'	c #373737",
")	c #3C3C3C",
"........................",
"........................",
"........................",
"........................",
"........................",
"........+@#$$%@+........",
".......&*=&--&=*&.......",
"......&;>,,,,,,>;&......",
".....+*>,,,,,,,,&*+.....",
".....@=,,,,,,,,,,=@.....",
".....#&,,,,,,,,,,&%.....",
".....$-,,,,,,,,,,,*.....",
".....$-,,,,,,,,,,,$.....",
".....%&,,,,,,,,,,&#'....",
".....@=,,,,,,,,,,=@.....",
".....+*>,,,,,,,,>*).....",
"......&;>,,,,,,>;&......",
".......&*=&--&=*>.......",
"........+@%$$%@+........",
"........................",
"........................",
"........................",
"........................",
"........................"};
