/* XPM */
/* This file is a part of the NsCDE - Not so Common Desktop Environment */
static char *view_refresh_48x48[] = {
/* columns rows colors chars-per-pixel */
"48 48 4 1 ",
"X      s None m None c None",
".      s bottomShadowColor m black c #5fc55fc572bf",
"o      s topShadowColor m black c #8d8da01f9b1a",
"@      s foreground m black c #ffffffffffff",
/* pixels */
"ooooooooooooooooooooooooooooooooooooooooooooooo.",
"oooooooooooooooooooooooooooooooooooooooooooooo..",
"ooXXXXXXXXXXXXXXXXXXXXXXXXXXXXXXXXXXXXXXXXXXXX..",
"ooXXXXXXXXXXXXXXXXXXXXXXXXXXXXXXXXXXXXXXXXXXXX..",
"ooXXXXXXXXXXXXXXXXXXXXXXXXXXXXXXXXXXXXXXXXXXXX..",
"ooXXXXXXXXXXXXXXXXXXXXXXXXXXXXXXXXXXXXXXXXXXXX..",
"ooXXXXXXXXXXXXXXXXXXXXXXXXXXXXXXXXXXXXXXXXXXXX..",
"ooXXXXXXXXXXXXXXXXXXX.......XXXXXXXXXXXXXXXXXX..",
"ooXXXXXXXXXXXXXXXXXX@@@@@@@@@XXXXXXXXXXXXXXXXX..",
"ooXXXXXXXXXXXXXXXX@@@@@@@@@@@@XXXXXXXXXXXXXXXX..",
"ooXXXXXXXXXXXXXXXX@@@@@@@@@@@@@XXXXXXXXXXXXXXX..",
"ooXXXXXXXXXXXXXXX@@@@@@XX@@@@@@@XXXXXXXXXXXXXX..",
"ooXXXXXXXXXXXXXX@@@@@@XXXX@@@@@@@XXXXXXXXXXXXX..",
"ooXXXXXXXXXXXXXX@@@@@@XXXXX@@@@@@@XXXXXXXXXXXX..",
"ooXXXXXXXXXXXXXX@@@@@XXXXXXX@@@@@@.XXXXXXXXXXX..",
"ooXXXXXXXXXXXXXX@@@@@XXXXXXXX@@@@@.XXXXXXXXXXX..",
"ooXXXXXXXXXXXXXX@@@@@XXXXXXXXX@@@@.XXXXXXXXXXX..",
"ooXXXXXXXXX@@@@@@@@@@@@@@@XXXXX@@@.XXXXXXXXXXX..",
"ooXXXXXXXXXX@@@@@@@@@@@@@XXXXXXX@@.XXXXXXXXXXX..",
"ooXXXXXXXXXXX@@@@@@@@@@@XXXXXXXXX@.XXXXXXXXXXX..",
"ooXXXXXXXXXXXX@@@@@@@@@XXXXXXXXXXXXXXXXXXXXXXX..",
"ooXXXXXXXXXXXXX@@@@@@@XXXXXXXXXXXXXXXXXXXXXXXX..",
"ooXXXXXXXXXXXXXX@@@@@XXXXXXXXXXXXXXXXXXXXXXXXX..",
"ooXXXXXXXXXXXXXXX@@@XXXXXXX@XXXXXXXXXXXXXXXXXX..",
"ooXXXXXXXXXXXXXXXX@XXXXXXX@@@XXXXXXXXXXXXXXXXX..",
"ooXXXXXXXXXXXXXXXXXXXXXXX@@@@@XXXXXXXXXXXXXXXX..",
"ooXXXXXXXXXXXXXXXXXXXXXX@@@@@@@XXXXXXXXXXXXXXX..",
"ooXXXXXXXXXXXXXXXXXXXXX@@@@@@@@@XXXXXXXXXXXXXX..",
"ooXXXXXXXXX.@XXXXXXXXX@@@@@@@@@@@XXXXXXXXXXXXX..",
"ooXXXXXXXXX.@@XXXXXXX@@@@@@@@@@@@@XXXXXXXXXXXX..",
"ooXXXXXXXXX.@@@XXXXX@@@@@@@@@@@@@@@XXXXXXXXXXX..",
"ooXXXXXXXXX.@@@@XXXXXXXXX@@@@@XXXXXXXXXXXXXXXX..",
"ooXXXXXXXXX.@@@@@XXXXXXXX@@@@@XXXXXXXXXXXXXXXX..",
"ooXXXXXXXXX.@@@@@@XXXXXXX@@@@@XXXXXXXXXXXXXXXX..",
"ooXXXXXXXXXX@@@@@@@XXXXX@@@@@@XXXXXXXXXXXXXXXX..",
"ooXXXXXXXXXXX@@@@@@@XXXX@@@@@@XXXXXXXXXXXXXXXX..",
"ooXXXXXXXXXXXX@@@@@@@XX@@@@@@XXXXXXXXXXXXXXXXX..",
"ooXXXXXXXXXXXXX@@@@@@@@@@@@@XXXXXXXXXXXXXXXXXX..",
"ooXXXXXXXXXXXXXX@@@@@@@@@@@@XXXXXXXXXXXXXXXXXX..",
"ooXXXXXXXXXXXXXXX@@@@@@@@@XXXXXXXXXXXXXXXXXXXX..",
"ooXXXXXXXXXXXXXXXX.......XXXXXXXXXXXXXXXXXXXXX..",
"ooXXXXXXXXXXXXXXXXXXXXXXXXXXXXXXXXXXXXXXXXXXXX..",
"ooXXXXXXXXXXXXXXXXXXXXXXXXXXXXXXXXXXXXXXXXXXXX..",
"ooXXXXXXXXXXXXXXXXXXXXXXXXXXXXXXXXXXXXXXXXXXXX..",
"ooXXXXXXXXXXXXXXXXXXXXXXXXXXXXXXXXXXXXXXXXXXXX..",
"ooXXXXXXXXXXXXXXXXXXXXXXXXXXXXXXXXXXXXXXXXXXXX..",
"oo..............................................",
"o..............................................."
};
