/* XPM */
/* This file is a part of the NsCDE - Not so Common Desktop Environment */
static char *FpMenu_xpm[] = {
/* width height num_colors chars_per_pixel */
"    12     4        3            1",
/* colors */
"        c None",
"#      s bottomShadowColor    m    black c #0875395436fa",
".      s topShadowColor    m    white c #9122c1c8bf71",
/* pixels */  
"............",
".          #",
".          #",
".###########",
};
