/* XPM */
/* This file is a part of the NsCDE - Not so Common Desktop Environment */
static char *_4x24_media_seek_forward[] = {
/* columns rows colors chars-per-pixel */
"24 24 4 1 ",
"@ s foreground m white c #ffffffffffff",
". s bottomShadowColor m black c #5fc55fc572bf",
"X s background m black c #1b1b40403636",
"o s topShadowColor m white c #8d8da01f9b1a",
/* pixels */
"oooooooooooooooooooooooo",
"ooooooooooooooooooooooo.",
"ooXXXXXXXXXXXXXXXXXXXX..",
"ooXXXXXXXXXXXXXXXXXXXX..",
"ooXXXXXXXXXXXXXXXXXXXX..",
"ooXXXXXXXXXXXXXXXXXXXX..",
"ooXXX@XXXXXX@XXXXXXXXX..",
"ooXXX@@XXXXX@@XXXXXXXX..",
"ooXXX@@@XXXX@@@XXXXXXX..",
"ooXXX@@@@XXX@@@@XXXXXX..",
"ooXXX@@@@@XX@@@@@XXXXX..",
"ooXXX@@@@@@X@@@@@@XXXX..",
"ooXXX@@@@@@@@@@@@@@XXX..",
"ooXXX@@@@@@X@@@@@@XXXX..",
"ooXXX@@@@@XX@@@@@XXXXX..",
"ooXXX@@@@XXX@@@@XXXXXX..",
"ooXXX@@@XXXX@@@XXXXXXX..",
"ooXXX@@XXXXX@@XXXXXXXX..",
"ooXXX@XXXXXX@XXXXXXXXX..",
"ooXXXXXXXXXXXXXXXXXXXX..",
"ooXXXXXXXXXXXXXXXXXXXX..",
"ooXXXXXXXXXXXXXXXXXXXX..",
"oo......................",
"o......................."
};
