/* XPM */
/* This file is a part of the NsCDE - Not so Common Desktop Environment */
static char *_4x24_media_skip_forward_rtl[] = {
/* columns rows colors chars-per-pixel */
"24 24 4 1 ",
"@ s foreground m white c #ffffffffffff",
". s bottomShadowColor m black c #5fc55fc572bf",
"X s background m black c #1b1b40403636",
"o s topShadowColor m white c #8d8da01f9b1a",
/* pixels */
"oooooooooooooooooooooooo",
"ooooooooooooooooooooooo.",
"ooXXXXXXXXXXXXXXXXXXXX..",
"ooXXXXXXXXXXXXXXXXXXXX..",
"ooXXXXXXXXXXXXXXXXXXXX..",
"ooXX@@XXXXXXXXXXXXXXXX..",
"ooXX@@XXXXXX@XXXXXX@XX..",
"ooXX@@XXXXX@@XXXXX@@XX..",
"ooXX@@XXXX@@@XXXX@@@XX..",
"ooXX@@XXX@@@@XXX@@@@XX..",
"ooXX@@XX@@@@@XX@@@@@XX..",
"ooXX@@X@@@@@@X@@@@@@XX..",
"ooXX@@@@@@@@@@@@@@@@XX..",
"ooXX@@X@@@@@@X@@@@@@XX..",
"ooXX@@XX@@@@@XX@@@@@XX..",
"ooXX@@XXX@@@@XXX@@@@XX..",
"ooXX@@XXXX@@@XXXX@@@XX..",
"ooXX@@XXXXX@@XXXXX@@XX..",
"ooXX@@XXXXXX@XXXXXX@XX..",
"ooXX@@XXXXXXXXXXXXXXXX..",
"ooXXXXXXXXXXXXXXXXXXXX..",
"ooXXXXXXXXXXXXXXXXXXXX..",
"oo......................",
"o......................."
};
