/* XPM */
/* This file is a part of the NsCDE - Not so Common Desktop Environment */
static char *_4x24_media_record[] = {
/* columns rows colors chars-per-pixel */
"24 24 4 1 ",
"@ c red",
". s bottomShadowColor m black c #5fc55fc572bf",
"X s background m black c #1b1b40403636",
"o s topShadowColor m white c #8d8da01f9b1a",
/* pixels */
"oooooooooooooooooooooooo",
"ooooooooooooooooooooooo.",
"ooXXXXXXXXXXXXXXXXXXXX..",
"ooXXXXXXXXXXXXXXXXXXXX..",
"ooXXXXXXXooooooXXXXXXX..",
"ooXXXXXooo@@@@oooXXXXX..",
"ooXXXXoo@@@@@@@@ooXXXX..",
"ooXXXoo@@@@@@@@@@ooXXX..",
"ooXXXo@@@@@@@@@@@@oXXX..",
"ooXXoo@@@@@@@@@@@@ooXX..",
"ooXXo@@@@@@@@@@@@@@oXX..",
"ooXXo@@@@@@@@@@@@@@oXX..",
"ooXXo@@@@@@@@@@@@@@oXX..",
"ooXXo@@@@@@@@@@@@@@oXX..",
"ooXXoo@@@@@@@@@@@@ooXX..",
"ooXXXo@@@@@@@@@@@@oXXX..",
"ooXXXoo@@@@@@@@@@ooXXX..",
"ooXXXXoo@@@@@@@@ooXXXX..",
"ooXXXXXooo@@@@oooXXXXX..",
"ooXXXXXXXooooooXXXXXXX..",
"ooXXXXXXXXXXXXXXXXXXXX..",
"ooXXXXXXXXXXXXXXXXXXXX..",
"oo......................",
"o......................."
};
