/* XPM */
/* This file is a part of the NsCDE - Not so Common Desktop Environment */
static char *format_text_underline[] = {
/* columns rows colors chars-per-pixel */
"22 22 4 1 ",
"@ s foreground m white c #ffffffffffff",
". s bottomShadowColor m black c #5fc55fc572bf",
"X s background m black c #1b1b40403636",
"o s topShadowColor m white c #8d8da01f9b1a",
/* pixels */
"ooooooooooooooooooooo.",
"oXXXXXXXXXXXXXXXXXXXX.",
"oXXXXXXXXXXXXXXXXXXXX.",
"oXXXX@@XXXXXXXX@@XXXX.",
"oXXXX@@XXXXXXXX@@XXXX.",
"oXXXX@@XXXXXXXX@@XXXX.",
"oXXXX@@XXXXXXXX@@XXXX.",
"oXXXX@@XXXXXXXX@@XXXX.",
"oXXXX@@XXXXXXXX@@XXXX.",
"oXXXX@@XXXXXXXX@@XXXX.",
"oXXXX@@XXXXXXXX@@XXXX.",
"oXXXX@@XXXXXXXX@@XXXX.",
"oXXXX@@XXXXXXXX@@XXXX.",
"oXXXX@@XXXXXXXX@@XXXX.",
"oXXXXX@@XXXXXX@@XXXXX.",
"oXXXXX@@@XXXX@@@XXXXX.",
"oXXXXXXX@@@@@@XXXXXXX.",
"oXXXXXXXXXXXXXXXXXXXX.",
"oXXXXXXXXXXXXXXXXXXXX.",
"oXXX@@@@@@@@@@@@@@XXX.",
"oXXXXXXXXXXXXXXXXXXXX.",
"......................"
};
