/* XPM */
/* This file is a part of the NsCDE - Not so Common Desktop Environment */
static char *_2x22_media_seek_backward_rtl[] = {
/* columns rows colors chars-per-pixel */
"22 22 4 1 ",
"@ s foreground m white c #ffffffffffff",
". s bottomShadowColor m black c #5fc55fc572bf",
"X s background m black c #1b1b40403636",
"o s topShadowColor m white c #8d8da01f9b1a",
/* pixels */
"oooooooooooooooooooooo",
"oXXXXXXXXXXXXXXXXXXXX.",
"oXXXXXXXXXXXXXXXXXXXX.",
"oXXXXXXXXXXXXXXXXXXXX.",
"oXXXXXXXXXXXXXXXXXXXX.",
"oXXX@XXXXXX@XXXXXXXXX.",
"oXXX@@XXXXX@@XXXXXXXX.",
"oXXX@@@XXXX@@@XXXXXXX.",
"oXXX@@@@XXX@@@@XXXXXX.",
"oXXX@@@@@XX@@@@@XXXXX.",
"oXXX@@@@@@X@@@@@@XXXX.",
"oXXX@@@@@@@@@@@@@@XXX.",
"oXXX@@@@@@X@@@@@@XXXX.",
"oXXX@@@@@XX@@@@@XXXXX.",
"oXXX@@@@XXX@@@@XXXXXX.",
"oXXX@@@XXXX@@@XXXXXXX.",
"oXXX@@XXXXX@@XXXXXXXX.",
"oXXX@XXXXXX@XXXXXXXXX.",
"oXXXXXXXXXXXXXXXXXXXX.",
"oXXXXXXXXXXXXXXXXXXXX.",
"oXXXXXXXXXXXXXXXXXXXX.",
"o....................."
};
