/* XPM */
/* This file is a part of the NsCDE - Not so Common Desktop Environment */
static char *format_text_bold[] = {
/* columns rows colors chars-per-pixel */
"32 32 4 1 ",
"@ s foreground m white c #ffffffffffff",
". s bottomShadowColor m black c #5fc55fc572bf",
"X s background m black c #1b1b40403636",
"o s topShadowColor m white c #8d8da01f9b1a",
/* pixels */
"ooooooooooooooooooooooooooooooo.",
"oooooooooooooooooooooooooooooo..",
"ooXXXXXXXXXXXXXXXXXXXXXXXXXXXX..",
"ooXXXXXXXXXXXXXXXXXXXXXXXXXXXX..",
"ooXXXXXXXXXXXXXXXXXXXXXXXXXXXX..",
"ooXXXXXXXXXXXXXXXXXXXXXXXXXXXX..",
"ooXXXXXX@@@@@@@@@@@@XXXXXXXXXX..",
"ooXXXXXX@@@@@@@@@@@@@@XXXXXXXX..",
"ooXXXXXX@@@@@@@@@@@@@@@XXXXXXX..",
"ooXXXXXX@@@@@@@@@@@@@@@@XXXXXX..",
"ooXXXXXX@@@@@XXXXX@@@@@@XXXXXX..",
"ooXXXXXX@@@@@XXXXXX@@@@@XXXXXX..",
"ooXXXXXX@@@@@XXXXXX@@@@@XXXXXX..",
"ooXXXXXX@@@@@XXXXX@@@@@@XXXXXX..",
"ooXXXXXX@@@@@@@@@@@@@@@XXXXXXX..",
"ooXXXXXX@@@@@@@@@@@@@@XXXXXXXX..",
"ooXXXXXX@@@@@@@@@@@@@@@XXXXXXX..",
"ooXXXXXX@@@@@@@@@@@@@@@@XXXXXX..",
"ooXXXXXX@@@@@XXXXXX@@@@@@XXXXX..",
"ooXXXXXX@@@@@XXXXXXX@@@@@XXXXX..",
"ooXXXXXX@@@@@XXXXXXX@@@@@XXXXX..",
"ooXXXXXX@@@@@XXXXXX@@@@@@XXXXX..",
"ooXXXXXX@@@@@@@@@@@@@@@@@XXXXX..",
"ooXXXXXX@@@@@@@@@@@@@@@@XXXXXX..",
"ooXXXXXX@@@@@@@@@@@@@@@XXXXXXX..",
"ooXXXXXX@@@@@@@@@@@@@XXXXXXXXX..",
"ooXXXXXXXXXXXXXXXXXXXXXXXXXXXX..",
"ooXXXXXXXXXXXXXXXXXXXXXXXXXXXX..",
"ooXXXXXXXXXXXXXXXXXXXXXXXXXXXX..",
"ooXXXXXXXXXXXXXXXXXXXXXXXXXXXX..",
"o...............................",
"................................"
};
