/* XPM */
/* This file is a part of the NsCDE - Not so Common Desktop Environment */
static char *format_indent_more[] = {
/* columns rows colors chars-per-pixel */
"32 32 4 1 ",
"@ s foreground m white c #ffffffffffff",
". s bottomShadowColor m black c #5fc55fc572bf",
"X s background m black c #1b1b40403636",
"o s topShadowColor m white c #8d8da01f9b1a",
/* pixels */
"ooooooooooooooooooooooooooooooo.",
"oooooooooooooooooooooooooooooo..",
"ooXXXXXXXXXXXXXXXXXXXXXXXXXXXX..",
"ooXXXXXXXXXXXXXXXXXXXXXXXXXXXX..",
"ooXXXXXXXXXXXXXXXXXXXXXXXXXXXX..",
"ooXXX@@@@@@@@@@@@@@@@@@@@@@XXX..",
"ooXXX@@@@@@@@@@@@@@@@@@@@@@XXX..",
"ooXXXXXXXXXXXXXXXXXXXXXXXXXXXX..",
"ooXXX@@XXXXXXXXXXXXXXXXXXXXXXX..",
"ooXXX@@@@XXXXXX@@@@@@@@@@@@XXX..",
"ooXXXXX@@@@XXXX@@@@@@@@@@@@XXX..",
"ooXXXXXXX@@@@XXXXXXXXXXXXXXXXX..",
"ooXXXXX@@@@XXXXXXXXXXXXXXXXXXX..",
"ooXXX@@@@XXXXXX@@@@@@@@@@@@XXX..",
"ooXXX@@XXXXXXXX@@@@@@@@@@@@XXX..",
"ooXXXXXXXXXXXXXXXXXXXXXXXXXXXX..",
"ooXXXXXXXXXXXXXXXXXXXXXXXXXXXX..",
"ooXXX@@@@@@@@@@@@@@@@@@@@@@XXX..",
"ooXXX@@@@@@@@@@@@@@@@@@@@@@XXX..",
"ooXXXXXXXXXXXXXXXXXXXXXXXXXXXX..",
"ooXXXXXXXXXXXXXXXXXXXXXXXXXXXX..",
"ooXXX@@@@@@@@@@@@@@@@@@@@@@XXX..",
"ooXXX@@@@@@@@@@@@@@@@@@@@@@XXX..",
"ooXXXXXXXXXXXXXXXXXXXXXXXXXXXX..",
"ooXXXXXXXXXXXXXXXXXXXXXXXXXXXX..",
"ooXXX@@@@@@@@@@@@@@@@@@@@@@XXX..",
"ooXXX@@@@@@@@@@@@@@@@@@@@@@XXX..",
"ooXXXXXXXXXXXXXXXXXXXXXXXXXXXX..",
"ooXXXXXXXXXXXXXXXXXXXXXXXXXXXX..",
"ooXXXXXXXXXXXXXXXXXXXXXXXXXXXX..",
"o...............................",
"................................"
};
