/* XPM */
/* This file is a part of the NsCDE - Not so Common Desktop Environment */
static char *_2x32_media_record[] = {
/* columns rows colors chars-per-pixel */
"32 32 4 1 ",
"@ c red",
". s bottomShadowColor m black c #5fc55fc572bf",
"X s background m black c #1b1b40403636",
"o s topShadowColor m white c #8d8da01f9b1a",
/* pixels */
"oooooooooooooooooooooooooooooooo",
"ooooooooooooooooooooooooooooooo.",
"ooXXXXXXXXXXXXXXXXXXXXXXXXXXXX..",
"ooXXXXXXXXXXXXXXXXXXXXXXXXXXXX..",
"ooXXXXXXXXXXXXXXXXXXXXXXXXXXXX..",
"ooXXXXXXXXXXooooooooXXXXXXXXXX..",
"ooXXXXXXXXooooooooooooXXXXXXXX..",
"ooXXXXXXXoooo@@@@@@ooooXXXXXXX..",
"ooXXXXXXooo@@@@@@@@@@oooXXXXXX..",
"ooXXXXXooo@@@@@@@@@@@@oooXXXXX..",
"ooXXXXooo@@@@@@@@@@@@@@oooXXXX..",
"ooXXXXoo@@@@@@@@@@@@@@@@ooXXXX..",
"ooXXXooo@@@@@@@@@@@@@@@@oooXXX..",
"ooXXXoo@@@@@@@@@@@@@@@@@@ooXXX..",
"ooXXXoo@@@@@@@@@@@@@@@@@@ooXXX..",
"ooXXXoo@@@@@@@@@@@@@@@@@@ooXXX..",
"ooXXXoo@@@@@@@@@@@@@@@@@@ooXXX..",
"ooXXXoo@@@@@@@@@@@@@@@@@@ooXXX..",
"ooXXXoo@@@@@@@@@@@@@@@@@@ooXXX..",
"ooXXXooo@@@@@@@@@@@@@@@@oooXXX..",
"ooXXXXoo@@@@@@@@@@@@@@@@ooXXXX..",
"ooXXXXooo@@@@@@@@@@@@@@oooXXXX..",
"ooXXXXXooo@@@@@@@@@@@@oooXXXXX..",
"ooXXXXXXooo@@@@@@@@@@oooXXXXXX..",
"ooXXXXXXXoooo@@@@@@ooooXXXXXXX..",
"ooXXXXXXXXooooooooooooXXXXXXXX..",
"ooXXXXXXXXXXooooooooXXXXXXXXXX..",
"ooXXXXXXXXXXXXXXXXXXXXXXXXXXXX..",
"ooXXXXXXXXXXXXXXXXXXXXXXXXXXXX..",
"ooXXXXXXXXXXXXXXXXXXXXXXXXXXXX..",
"oo..............................",
"o..............................."
};
