/* XPM */
/* This file is a part of the NsCDE - Not so Common Desktop Environment */
static char *format_indent_more[] = {
/* columns rows colors chars-per-pixel */
"16 16 4 1 ",
"@ s foreground m white c #ffffffffffff",
". s bottomShadowColor m black c #5fc55fc572bf",
"X s background m black c #1b1b40403636",
"o s topShadowColor m white c #8d8da01f9b1a",
/* pixels */
"ooooooooooooooo.",
"oXXXXXXXXXXXXXX.",
"oXXXXXXXXXXXXXX.",
"oX@X@@@@@@@@@@X.",
"oX@@XXXXXXXXXXX.",
"oXX@@XXXXXXXXXX.",
"oXXX@@XX@@@@@@X.",
"oXXXX@@XXXXXXXX.",
"oXXX@@XXXXXXXXX.",
"oXX@@XXX@@@@@@X.",
"oX@@XXXXXXXXXXX.",
"oX@XXXXXXXXXXXX.",
"oXXX@@@@@@@@@@X.",
"oXXXXXXXXXXXXXX.",
"oXXXXXXXXXXXXXX.",
"................"
};
